<?xml version="1.0" standalone="no"?>
<!DOCTYPE svg PUBLIC "-//W3C//DTD SVG 20010904//EN"
 "http://www.w3.org/TR/2001/REC-SVG-20010904/DTD/svg10.dtd">
<svg version="1.0" xmlns="http://www.w3.org/2000/svg"
 width="128.000000pt" height="128.000000pt" viewBox="0 0 128.000000 128.000000"
 preserveAspectRatio="xMidYMid meet">
<metadata>
Created by potrace 1.11, written by Peter Selinger 2001-2013
</metadata>
<g transform="translate(0.000000,128.000000) scale(0.100000,-0.100000)"
fill="#000000" stroke="none">
<path d="M299 1106 c-103 -42 -149 -93 -149 -163 0 -24 5 -43 10 -43 6 0 42
22 80 49 38 27 91 54 117 60 41 11 49 10 72 -7 22 -16 26 -28 29 -79 2 -49 -4
-80 -39 -176 l-41 -117 -77 0 c-68 0 -79 3 -100 25 -27 30 -41 25 -41 -15 0
-48 51 -96 116 -111 31 -7 53 -17 51 -23 -50 -135 -97 -294 -92 -313 7 -29 45
-48 78 -39 37 9 70 68 126 226 29 80 54 147 57 149 6 6 247 30 252 25 2 -1 -5
-43 -17 -92 -27 -115 -27 -174 0 -230 28 -57 69 -82 135 -82 66 0 156 44 231
114 l55 51 -19 48 -19 48 -58 -51 c-31 -27 -70 -57 -86 -65 -65 -34 -110 -6
-110 68 0 46 28 189 40 201 5 5 43 12 84 16 80 8 106 20 106 51 0 30 -35 42
-102 34 l-61 -7 7 28 c4 16 30 90 57 164 65 179 64 230 -3 230 -55 0 -69 -25
-159 -285 l-49 -140 -120 -9 c-67 -4 -123 -6 -126 -3 -3 2 9 58 27 123 38 143
42 224 13 279 -43 82 -161 108 -275 61z"/>
</g>
</svg>
